tn/gov/smoketest/it/tests/HelloWorldModelServerSideTest$3.class
tn/gov/smoketest/it/tests/HelloWorldModelServerSideTest$AdminResolverCallable.class
tn/gov/smoketest/it/tests/HelloWorldModelServerSideTest.class
tn/gov/smoketest/it/tests/HelloWorldModelServerSideTest$1.class
tn/gov/smoketest/it/tests/HelloWorldModelServerSideTest$2.class
